SpFut.processGBIF
…
head(iNat)
#> $dat
#> # A tibble: 525 × 19
#>    site.id   lat   lon stateProvince coord.unc eventDate         day month  year
#>    <chr>   <dbl> <dbl> <chr>             <dbl> <chr>           <int> <int> <dbl>
#>  1 iNat301  37.1 -114. Utah              28447 2013-05-19         19     5  2013
#>  2 iNat406  37.3 -113. Utah              28417 2012-08-12         12     8  2012
#>  3 iNat153  34.2 -111. Arizona           28846 2008-08-09          9     8  2008
#>  4 iNat261  37.1 -114. Utah              28447 2008-05-15T09:…    15     5  2008
#>  5 iNat215  37.0 -114. Utah              28447 2025-03-12T15:…    12     3  2025
#>  6 iNat148  34.2 -111. Arizona           28874 2006-08-15T10:…    15     8  2006
#>  7 iNat388  37.2 -113. Utah              28417 2011-07-03T07:…     3     7  2011
#>  8 iNat174  34.6 -114. Arizona           28818 2019-03-14T22:…    14     3  2019
#>  9 iNat327  37.2 -113. Utah              28447 2025-02-19T11:…    19     2  2025
#> 10 iNat350  37.2 -114. Utah              28447 2024-09-12T20:…    12     9  2024
#> # ℹ 515 more rows
#> # ℹ 10 more variables: survey.conducted <dbl>, survey.id <int>, pass.id <dbl>,
#> #   survey.pass <chr>, data.type <chr>, species <chr>, age <chr>,
#> #   individual.id <lgl>, time.to.detect <lgl>, count <dbl>
…
head(museum)
#> $dat
#> # A tibble: 863 × 19
#>    site.id   lat   lon stateProvince coord.unc eventDate    day month  year
#>    <chr>   <dbl> <dbl> <chr>             <dbl> <chr>      <int> <int> <dbl>
#>  1 iNat711  37.1 -114. Utah                805 1977-07-18    18     7  1977
#>  2 iNat736  37.2 -114. Utah                 NA 1978-05-29    29     5  1978
#>  3 iNat739  37.2 -114. Utah                 NA 1978-05-29    29     5  1978
#>  4 iNat752  37.2 -114. Utah                 NA 1970-05-22    22     5  1970
#>  5 iNat2    21.5 -105. Nayarit              NA 1969          NA    NA    NA
#>  6 iNat276  33.4 -117. California           NA 1953-06-18    18     6  1953
#>  7 iNat33   27.3 -107. Chihuahua            NA 1958-07-10    10     7  1958
#>  8 iNat43   27.7 -108. Chihuahua            NA 1958-07-06     6     7  1958
#>  9 iNat32   27.3 -107. Chihuahua            NA 1958-07-13    13     7  1958
#> 10 iNat4    23.7 -105. Durango              NA 1955-06-24    24     6  1955
#> # ℹ 853 more rows
#> # ℹ 10 more variables: survey.conducted <dbl>, survey.id <int>, pass.id <dbl>,
#> #   survey.pass <chr>, data.type <chr>, species <chr>, age <chr>,
#> #   individual.id <lgl>, time.to.detect <lgl>, count <dbl>
…
